{
  "project_info": {
    "project_number": "223494993374",
    "firebase_url": "https://twitch-alert-64acf.firebaseio.com",
    "project_id": "twitch-alert-64acf",
    "storage_bucket": "twitch-alert-64acf.appspot.com"
  },
  "client": [
    {
      "client_info": {
        "mobilesdk_app_id": "1:223494993374:android:518e64eaffd916f6",
        "android_client_info": {
          "package_name": "io.ionic.twitchalert"
        }
      },
      "oauth_client": [
        {
          "client_id": "223494993374-h6tad0tppc31kmh5i986p9ro08mea0pr.apps.googleusercontent.com",
          "client_type": 3
        }
      ],
      "api_key": [
        {
          "current_key": "AIzaSyADVJItb0_xFf9SGC8MpddF15tsjwRvE80"
        },
        {
          "current_key": "AIzaSyADVJItb0_xFf9SGC8MpddF15tsjwRvE80"
        },
        {
          "current_key": "AIzaSyADVJItb0_xFf9SGC8MpddF15tsjwRvE80"
        }
      ],
      "services": {
        "analytics_service": {
          "status": 1
        },
        "appinvite_service": {
          "status": 1,
          "other_platform_oauth_client": []
        },
        "ads_service": {
          "status": 2
        }
      }
    }
  ],
  "configuration_version": "1"
}